{
  "page": 1,
  "per_page": 15,
  "photos": [
    {
      "id": 14384827,
      "width": 4160,
      "height": 6240,
      "url": "https://www.pexels.com/photo/asphalt-road-and-the-bosphorus-bridge-behind-the-trees-14384827/",
      "photographer": "Ahmed  ツ",
      "photographer_url": "https://www.pexels.com/@mutecevvil",
      "photographer_id": 3479092,
      "avg_color": "#968279",
      "src": {
        "original": "https://images.pexels.com/photos/14384827/pexels-photo-14384827.jpeg",
        "large2x": "https://images.pexels.com/photos/14384827/pexels-photo-14384827.jpeg?auto=compress&cs=tinysrgb&dpr=2&h=650&w=940",
        "large": "https://images.pexels.com/photos/14384827/pexels-photo-14384827.jpeg?auto=compress&cs=tinysrgb&h=650&w=940",
        "medium": "https://images.pexels.com/photos/14384827/pexels-photo-14384827.jpeg?auto=compress&cs=tinysrgb&h=350",
        "small": "https://images.pexels.com/photos/14384827/pexels-photo-14384827.jpeg?auto=compress&cs=tinysrgb&h=130",
        "portrait": "https://images.pexels.com/photos/14384827/pexels-photo-14384827.jpeg?auto=compress&cs=tinysrgb&fit=crop&h=1200&w=800",
        "landscape": "https://images.pexels.com/photos/14384827/pexels-photo-14384827.jpeg?auto=compress&cs=tinysrgb&fit=crop&h=627&w=1200",
        "tiny": "https://images.pexels.com/photos/14384827/pexels-photo-14384827.jpeg?auto=compress&cs=tinysrgb&dpr=1&fit=crop&h=200&w=280"
      },
      "liked": false,
      "alt": ""
    },
    {
      "id": 14374871,
      "width": 2397,
      "height": 3575,
      "url": "https://www.pexels.com/photo/person-snorkeling-near-rock-on-shore-14374871/",
      "photographer": "Carlo Jünemann",
      "photographer_url": "https://www.pexels.com/@carlo-junemann-156928830",
      "photographer_id": 156928830,
      "avg_color": "#909E9E",
      "src": {
        "original": "https://images.pexels.com/photos/14374871/pexels-photo-14374871.jpeg",
        "large2x": "https://images.pexels.com/photos/14374871/pexels-photo-14374871.jpeg?auto=compress&cs=tinysrgb&dpr=2&h=650&w=940",
        "large": "https://images.pexels.com/photos/14374871/pexels-photo-14374871.jpeg?auto=compress&cs=tinysrgb&h=650&w=940",
        "medium": "https://images.pexels.com/photos/14374871/pexels-photo-14374871.jpeg?auto=compress&cs=tinysrgb&h=350",
        "small": "https://images.pexels.com/photos/14374871/pexels-photo-14374871.jpeg?auto=compress&cs=tinysrgb&h=130",
        "portrait": "https://images.pexels.com/photos/14374871/pexels-photo-14374871.jpeg?auto=compress&cs=tinysrgb&fit=crop&h=1200&w=800",
        "landscape": "https://images.pexels.com/photos/14374871/pexels-photo-14374871.jpeg?auto=compress&cs=tinysrgb&fit=crop&h=627&w=1200",
        "tiny": "https://images.pexels.com/photos/14374871/pexels-photo-14374871.jpeg?auto=compress&cs=tinysrgb&dpr=1&fit=crop&h=200&w=280"
      },
      "liked": false,
      "alt": "Free stock photo of atlantic ocean, boat, diver"
    },
    {
      "id": 14339337,
      "width": 4160,
      "height": 6240,
      "url": "https://www.pexels.com/photo/hoist-in-mountains-on-sunset-14339337/",
      "photographer": "Yulia  Pribytkova",
      "photographer_url": "https://www.pexels.com/@yulia-pribytkova-76505330",
      "photographer_id": 76505330,
      "avg_color": "#9F684A",
      "src": {
        "original": "https://images.pexels.com/photos/14339337/pexels-photo-14339337.jpeg",
        "large2x": "https://images.pexels.com/photos/14339337/pexels-photo-14339337.jpeg?auto=compress&cs=tinysrgb&dpr=2&h=650&w=940",
        "large": "https://images.pexels.com/photos/14339337/pexels-photo-14339337.jpeg?auto=compress&cs=tinysrgb&h=650&w=940",
        "medium": "https://images.pexels.com/photos/14339337/pexels-photo-14339337.jpeg?auto=compress&cs=tinysrgb&h=350",
        "small": "https://images.pexels.com/photos/14339337/pexels-photo-14339337.jpeg?auto=compress&cs=tinysrgb&h=130",
        "portrait": "https://images.pexels.com/photos/14339337/pexels-photo-14339337.jpeg?auto=compress&cs=tinysrgb&fit=crop&h=1200&w=800",
        "landscape": "https://images.pexels.com/photos/14339337/pexels-photo-14339337.jpeg?auto=compress&cs=tinysrgb&fit=crop&h=627&w=1200",
        "tiny": "https://images.pexels.com/photos/14339337/pexels-photo-14339337.jpeg?auto=compress&cs=tinysrgb&dpr=1&fit=crop&h=200&w=280"
      },
      "liked": false,
      "alt": ""
    },
    {
      "id": 14353715,
      "width": 4480,
      "height": 5600,
      "url": "https://www.pexels.com/photo/mountains-landscape-with-wet-road-14353715/",
      "photographer": "Matteo Milan",
      "photographer_url": "https://www.pexels.com/@matteo-milan-136935423",
      "photographer_id": 136935423,
      "avg_color": "#554D40",
      "src": {
        "original": "https://images.pexels.com/photos/14353715/pexels-photo-14353715.jpeg",
        "large2x": "https://images.pexels.com/photos/14353715/pexels-photo-14353715.jpeg?auto=compress&cs=tinysrgb&dpr=2&h=650&w=940",
        "large": "https://images.pexels.com/photos/14353715/pexels-photo-14353715.jpeg?auto=compress&cs=tinysrgb&h=650&w=940",
        "medium": "https://images.pexels.com/photos/14353715/pexels-photo-14353715.jpeg?auto=compress&cs=tinysrgb&h=350",
        "small": "https://images.pexels.com/photos/14353715/pexels-photo-14353715.jpeg?auto=compress&cs=tinysrgb&h=130",
        "portrait": "https://images.pexels.com/photos/14353715/pexels-photo-14353715.jpeg?auto=compress&cs=tinysrgb&fit=crop&h=1200&w=800",
        "landscape": "https://images.pexels.com/photos/14353715/pexels-photo-14353715.jpeg?auto=compress&cs=tinysrgb&fit=crop&h=627&w=1200",
        "tiny": "https://images.pexels.com/photos/14353715/pexels-photo-14353715.jpeg?auto=compress&cs=tinysrgb&dpr=1&fit=crop&h=200&w=280"
      },
      "liked": false,
      "alt": "Gray Concrete Road Between Green and Brown Trees"
    },
    {
      "id": 14448339,
      "width": 3333,
      "height": 5000,
      "url": "https://www.pexels.com/photo/city-landscape-fashion-art-14448339/",
      "photographer": "Céline",
      "photographer_url": "https://www.pexels.com/@celine-3776818",
      "photographer_id": 3776818,
      "avg_color": "#857A82",
      "src": {
        "original": "https://images.pexels.com/photos/14448339/pexels-photo-14448339.jpeg",
        "large2x": "https://images.pexels.com/photos/14448339/pexels-photo-14448339.jpeg?auto=compress&cs=tinysrgb&dpr=2&h=650&w=940",
        "large": "https://images.pexels.com/photos/14448339/pexels-photo-14448339.jpeg?auto=compress&cs=tinysrgb&h=650&w=940",
        "medium": "https://images.pexels.com/photos/14448339/pexels-photo-14448339.jpeg?auto=compress&cs=tinysrgb&h=350",
        "small": "https://images.pexels.com/photos/14448339/pexels-photo-14448339.jpeg?auto=compress&cs=tinysrgb&h=130",
        "portrait": "https://images.pexels.com/photos/14448339/pexels-photo-14448339.jpeg?auto=compress&cs=tinysrgb&fit=crop&h=1200&w=800",
        "landscape": "https://images.pexels.com/photos/14448339/pexels-photo-14448339.jpeg?auto=compress&cs=tinysrgb&fit=crop&h=627&w=1200",
        "tiny": "https://images.pexels.com/photos/14448339/pexels-photo-14448339.jpeg?auto=compress&cs=tinysrgb&dpr=1&fit=crop&h=200&w=280"
      },
      "liked": false,
      "alt": "Free stock photo of adobe photoshop, art, black"
    },
    {
      "id": 14447546,
      "width": 2859,
      "height": 3800,
      "url": "https://www.pexels.com/photo/girl-in-black-jacket-standing-beside-white-wooden-door-14447546/",
      "photographer": "Polina Chistyakova",
      "photographer_url": "https://www.pexels.com/@polinachistyakova",
      "photographer_id": 1245209,
      "avg_color": "#B2A99A",
      "src": {
        "original": "https://images.pexels.com/photos/14447546/pexels-photo-14447546.jpeg",
        "large2x": "https://images.pexels.com/photos/14447546/pexels-photo-14447546.jpeg?auto=compress&cs=tinysrgb&dpr=2&h=650&w=940",
        "large": "https://images.pexels.com/photos/14447546/pexels-photo-14447546.jpeg?auto=compress&cs=tinysrgb&h=650&w=940",
        "medium": "https://images.pexels.com/photos/14447546/pexels-photo-14447546.jpeg?auto=compress&cs=tinysrgb&h=350",
        "small": "https://images.pexels.com/photos/14447546/pexels-photo-14447546.jpeg?auto=compress&cs=tinysrgb&h=130",
        "portrait": "https://images.pexels.com/photos/14447546/pexels-photo-14447546.jpeg?auto=compress&cs=tinysrgb&fit=crop&h=1200&w=800",
        "landscape": "https://images.pexels.com/photos/14447546/pexels-photo-14447546.jpeg?auto=compress&cs=tinysrgb&fit=crop&h=627&w=1200",
        "tiny": "https://images.pexels.com/photos/14447546/pexels-photo-14447546.jpeg?auto=compress&cs=tinysrgb&dpr=1&fit=crop&h=200&w=280"
      },
      "liked": false,
      "alt": ""
    },
    {
      "id": 14426079,
      "width": 3024,
      "height": 4032,
      "url": "https://www.pexels.com/photo/light-vacation-love-art-14426079/",
      "photographer": "Eugenia Remark",
      "photographer_url": "https://www.pexels.com/@eugenia-remark-5767088",
      "photographer_id": 5767088,
      "avg_color": "#8D8578",
      "src": {
        "original": "https://images.pexels.com/photos/14426079/pexels-photo-14426079.jpeg",
        "large2x": "https://images.pexels.com/photos/14426079/pexels-photo-14426079.jpeg?auto=compress&cs=tinysrgb&dpr=2&h=650&w=940",
        "large": "https://images.pexels.com/photos/14426079/pexels-photo-14426079.jpeg?auto=compress&cs=tinysrgb&h=650&w=940",
        "medium": "https://images.pexels.com/photos/14426079/pexels-photo-14426079.jpeg?auto=compress&cs=tinysrgb&h=350",
        "small": "https://images.pexels.com/photos/14426079/pexels-photo-14426079.jpeg?auto=compress&cs=tinysrgb&h=130",
        "portrait": "https://images.pexels.com/photos/14426079/pexels-photo-14426079.jpeg?auto=compress&cs=tinysrgb&fit=crop&h=1200&w=800",
        "landscape": "https://images.pexels.com/photos/14426079/pexels-photo-14426079.jpeg?auto=compress&cs=tinysrgb&fit=crop&h=627&w=1200",
        "tiny": "https://images.pexels.com/photos/14426079/pexels-photo-14426079.jpeg?auto=compress&cs=tinysrgb&dpr=1&fit=crop&h=200&w=280"
      },
      "liked": false,
      "alt": ""
    },
    {
      "id": 14426182,
      "width": 3024,
      "height": 4032,
      "url": "https://www.pexels.com/photo/brown-wooden-bench-on-gray-and-black-carpet-14426182/",
      "photographer": "Eugenia Remark",
      "photographer_url": "https://www.pexels.com/@eugenia-remark-5767088",
      "photographer_id": 5767088,
      "avg_color": "#6A5037",
      "src": {
        "original": "https://images.pexels.com/photos/14426182/pexels-photo-14426182.jpeg",
        "large2x": "https://images.pexels.com/photos/14426182/pexels-photo-14426182.jpeg?auto=compress&cs=tinysrgb&dpr=2&h=650&w=940",
        "large": "https://images.pexels.com/photos/14426182/pexels-photo-14426182.jpeg?auto=compress&cs=tinysrgb&h=650&w=940",
        "medium": "https://images.pexels.com/photos/14426182/pexels-photo-14426182.jpeg?auto=compress&cs=tinysrgb&h=350",
        "small": "https://images.pexels.com/photos/14426182/pexels-photo-14426182.jpeg?auto=compress&cs=tinysrgb&h=130",
        "portrait": "https://images.pexels.com/photos/14426182/pexels-photo-14426182.jpeg?auto=compress&cs=tinysrgb&fit=crop&h=1200&w=800",
        "landscape": "https://images.pexels.com/photos/14426182/pexels-photo-14426182.jpeg?auto=compress&cs=tinysrgb&fit=crop&h=627&w=1200",
        "tiny": "https://images.pexels.com/photos/14426182/pexels-photo-14426182.jpeg?auto=compress&cs=tinysrgb&dpr=1&fit=crop&h=200&w=280"
      },
      "liked": false,
      "alt": ""
    },
    {
      "id": 14395900,
      "width": 4000,
      "height": 6000,
      "url": "https://www.pexels.com/photo/white-and-black-abstract-painting-14395900/",
      "photographer": "Mahdi Bafande",
      "photographer_url": "https://www.pexels.com/@mahdibafande",
      "photographer_id": 8098931,
      "avg_color": "#3B3F40",
      "src": {
        "original": "https://images.pexels.com/photos/14395900/pexels-photo-14395900.jpeg",
        "large2x": "https://images.pexels.com/photos/14395900/pexels-photo-14395900.jpeg?auto=compress&cs=tinysrgb&dpr=2&h=650&w=940",
        "large": "https://images.pexels.com/photos/14395900/pexels-photo-14395900.jpeg?auto=compress&cs=tinysrgb&h=650&w=940",
        "medium": "https://images.pexels.com/photos/14395900/pexels-photo-14395900.jpeg?auto=compress&cs=tinysrgb&h=350",
        "small": "https://images.pexels.com/photos/14395900/pexels-photo-14395900.jpeg?auto=compress&cs=tinysrgb&h=130",
        "portrait": "https://images.pexels.com/photos/14395900/pexels-photo-14395900.jpeg?auto=compress&cs=tinysrgb&fit=crop&h=1200&w=800",
        "landscape": "https://images.pexels.com/photos/14395900/pexels-photo-14395900.jpeg?auto=compress&cs=tinysrgb&fit=crop&h=627&w=1200",
        "tiny": "https://images.pexels.com/photos/14395900/pexels-photo-14395900.jpeg?auto=compress&cs=tinysrgb&dpr=1&fit=crop&h=200&w=280"
      },
      "liked": false,
      "alt": ""
    },
    {
      "id": 14300321,
      "width": 3888,
      "height": 5184,
      "url": "https://www.pexels.com/photo/glassware-and-plates-14300321/",
      "photographer": "Lisa Fotios",
      "photographer_url": "https://www.pexels.com/@fotios-photos",
      "photographer_id": 26735,
      "avg_color": "#908F8B",
      "src": {
        "original": "https://images.pexels.com/photos/14300321/pexels-photo-14300321.jpeg",
        "large2x": "https://images.pexels.com/photos/14300321/pexels-photo-14300321.jpeg?auto=compress&cs=tinysrgb&dpr=2&h=650&w=940",
        "large": "https://images.pexels.com/photos/14300321/pexels-photo-14300321.jpeg?auto=compress&cs=tinysrgb&h=650&w=940",
        "medium": "https://images.pexels.com/photos/14300321/pexels-photo-14300321.jpeg?auto=compress&cs=tinysrgb&h=350",
        "small": "https://images.pexels.com/photos/14300321/pexels-photo-14300321.jpeg?auto=compress&cs=tinysrgb&h=130",
        "portrait": "https://images.pexels.com/photos/14300321/pexels-photo-14300321.jpeg?auto=compress&cs=tinysrgb&fit=crop&h=1200&w=800",
        "landscape": "https://images.pexels.com/photos/14300321/pexels-photo-14300321.jpeg?auto=compress&cs=tinysrgb&fit=crop&h=627&w=1200",
        "tiny": "https://images.pexels.com/photos/14300321/pexels-photo-14300321.jpeg?auto=compress&cs=tinysrgb&dpr=1&fit=crop&h=200&w=280"
      },
      "liked": false,
      "alt": ""
    },
    {
      "id": 14367476,
      "width": 3955,
      "height": 5932,
      "url": "https://www.pexels.com/photo/sea-landscape-man-beach-14367476/",
      "photographer": "Feyza Yıldırım",
      "photographer_url": "https://www.pexels.com/@feyzayildirimphoto",
      "photographer_id": 50964441,
      "avg_color": "#C5CACD",
      "src": {
        "original": "https://images.pexels.com/photos/14367476/pexels-photo-14367476.jpeg",
        "large2x": "https://images.pexels.com/photos/14367476/pexels-photo-14367476.jpeg?auto=compress&cs=tinysrgb&dpr=2&h=650&w=940",
        "large": "https://images.pexels.com/photos/14367476/pexels-photo-14367476.jpeg?auto=compress&cs=tinysrgb&h=650&w=940",
        "medium": "https://images.pexels.com/photos/14367476/pexels-photo-14367476.jpeg?auto=compress&cs=tinysrgb&h=350",
        "small": "https://images.pexels.com/photos/14367476/pexels-photo-14367476.jpeg?auto=compress&cs=tinysrgb&h=130",
        "portrait": "https://images.pexels.com/photos/14367476/pexels-photo-14367476.jpeg?auto=compress&cs=tinysrgb&fit=crop&h=1200&w=800",
        "landscape": "https://images.pexels.com/photos/14367476/pexels-photo-14367476.jpeg?auto=compress&cs=tinysrgb&fit=crop&h=627&w=1200",
        "tiny": "https://images.pexels.com/photos/14367476/pexels-photo-14367476.jpeg?auto=compress&cs=tinysrgb&dpr=1&fit=crop&h=200&w=280"
      },
      "liked": false,
      "alt": ""
    },
    {
      "id": 14339052,
      "width": 2771,
      "height": 4156,
      "url": "https://www.pexels.com/photo/persons-hand-on-glass-window-14339052/",
      "photographer": "Anna Kollor",
      "photographer_url": "https://www.pexels.com/@anna-kollor-275578354",
      "photographer_id": 275578354,
      "avg_color": "#8D8583",
      "src": {
        "original": "https://images.pexels.com/photos/14339052/pexels-photo-14339052.jpeg",
        "large2x": "https://images.pexels.com/photos/14339052/pexels-photo-14339052.jpeg?auto=compress&cs=tinysrgb&dpr=2&h=650&w=940",
        "large": "https://images.pexels.com/photos/14339052/pexels-photo-14339052.jpeg?auto=compress&cs=tinysrgb&h=650&w=940",
        "medium": "https://images.pexels.com/photos/14339052/pexels-photo-14339052.jpeg?auto=compress&cs=tinysrgb&h=350",
        "small": "https://images.pexels.com/photos/14339052/pexels-photo-14339052.jpeg?auto=compress&cs=tinysrgb&h=130",
        "portrait": "https://images.pexels.com/photos/14339052/pexels-photo-14339052.jpeg?auto=compress&cs=tinysrgb&fit=crop&h=1200&w=800",
        "landscape": "https://images.pexels.com/photos/14339052/pexels-photo-14339052.jpeg?auto=compress&cs=tinysrgb&fit=crop&h=627&w=1200",
        "tiny": "https://images.pexels.com/photos/14339052/pexels-photo-14339052.jpeg?auto=compress&cs=tinysrgb&dpr=1&fit=crop&h=200&w=280"
      },
      "liked": false,
      "alt": "Persons Hand on Glass Window"
    },
    {
      "id": 14286678,
      "width": 3535,
      "height": 4713,
      "url": "https://www.pexels.com/photo/dough-on-a-cutting-board-14286678/",
      "photographer": "Nadin Sh",
      "photographer_url": "https://www.pexels.com/@nadin-sh-78971847",
      "photographer_id": 78971847,
      "avg_color": "#403635",
      "src": {
        "original": "https://images.pexels.com/photos/14286678/pexels-photo-14286678.jpeg",
        "large2x": "https://images.pexels.com/photos/14286678/pexels-photo-14286678.jpeg?auto=compress&cs=tinysrgb&dpr=2&h=650&w=940",
        "large": "https://images.pexels.com/photos/14286678/pexels-photo-14286678.jpeg?auto=compress&cs=tinysrgb&h=650&w=940",
        "medium": "https://images.pexels.com/photos/14286678/pexels-photo-14286678.jpeg?auto=compress&cs=tinysrgb&h=350",
        "small": "https://images.pexels.com/photos/14286678/pexels-photo-14286678.jpeg?auto=compress&cs=tinysrgb&h=130",
        "portrait": "https://images.pexels.com/photos/14286678/pexels-photo-14286678.jpeg?auto=compress&cs=tinysrgb&fit=crop&h=1200&w=800",
        "landscape": "https://images.pexels.com/photos/14286678/pexels-photo-14286678.jpeg?auto=compress&cs=tinysrgb&fit=crop&h=627&w=1200",
        "tiny": "https://images.pexels.com/photos/14286678/pexels-photo-14286678.jpeg?auto=compress&cs=tinysrgb&dpr=1&fit=crop&h=200&w=280"
      },
      "liked": false,
      "alt": ""
    },
    {
      "id": 14324926,
      "width": 3895,
      "height": 5843,
      "url": "https://www.pexels.com/photo/woman-in-white-and-pink-floral-long-sleeve-shirt-standing-on-brown-rock-14324926/",
      "photographer": "Nati",
      "photographer_url": "https://www.pexels.com/@nati-87264186",
      "photographer_id": 87264186,
      "avg_color": "#806B58",
      "src": {
        "original": "https://images.pexels.com/photos/14324926/pexels-photo-14324926.jpeg",
        "large2x": "https://images.pexels.com/photos/14324926/pexels-photo-14324926.jpeg?auto=compress&cs=tinysrgb&dpr=2&h=650&w=940",
        "large": "https://images.pexels.com/photos/14324926/pexels-photo-14324926.jpeg?auto=compress&cs=tinysrgb&h=650&w=940",
        "medium": "https://images.pexels.com/photos/14324926/pexels-photo-14324926.jpeg?auto=compress&cs=tinysrgb&h=350",
        "small": "https://images.pexels.com/photos/14324926/pexels-photo-14324926.jpeg?auto=compress&cs=tinysrgb&h=130",
        "portrait": "https://images.pexels.com/photos/14324926/pexels-photo-14324926.jpeg?auto=compress&cs=tinysrgb&fit=crop&h=1200&w=800",
        "landscape": "https://images.pexels.com/photos/14324926/pexels-photo-14324926.jpeg?auto=compress&cs=tinysrgb&fit=crop&h=627&w=1200",
        "tiny": "https://images.pexels.com/photos/14324926/pexels-photo-14324926.jpeg?auto=compress&cs=tinysrgb&dpr=1&fit=crop&h=200&w=280"
      },
      "liked": false,
      "alt": ""
    },
    {
      "id": 14341974,
      "width": 6000,
      "height": 4000,
      "url": "https://www.pexels.com/photo/person-holding-white-ceramic-bowls-14341974/",
      "photographer": "Галина Ласаева",
      "photographer_url": "https://www.pexels.com/@20710970",
      "photographer_id": 20710970,
      "avg_color": "#807C73",
      "src": {
        "original": "https://images.pexels.com/photos/14341974/pexels-photo-14341974.jpeg",
        "large2x": "https://images.pexels.com/photos/14341974/pexels-photo-14341974.jpeg?auto=compress&cs=tinysrgb&dpr=2&h=650&w=940",
        "large": "https://images.pexels.com/photos/14341974/pexels-photo-14341974.jpeg?auto=compress&cs=tinysrgb&h=650&w=940",
        "medium": "https://images.pexels.com/photos/14341974/pexels-photo-14341974.jpeg?auto=compress&cs=tinysrgb&h=350",
        "small": "https://images.pexels.com/photos/14341974/pexels-photo-14341974.jpeg?auto=compress&cs=tinysrgb&h=130",
        "portrait": "https://images.pexels.com/photos/14341974/pexels-photo-14341974.jpeg?auto=compress&cs=tinysrgb&fit=crop&h=1200&w=800",
        "landscape": "https://images.pexels.com/photos/14341974/pexels-photo-14341974.jpeg?auto=compress&cs=tinysrgb&fit=crop&h=627&w=1200",
        "tiny": "https://images.pexels.com/photos/14341974/pexels-photo-14341974.jpeg?auto=compress&cs=tinysrgb&dpr=1&fit=crop&h=200&w=280"
      },
      "liked": false,
      "alt": "Free stock photo of ceramic bowl, ceramic plate, ceramics"
    }
  ],
  "total_results": 8000,
  "next_page": "https://api.pexels.com/v1/curated/?page=2&per_page=15"
}